통계실습 I. 회귀분석, ARIMA 모형
…
# .brand-red[준비]

.scroll-output[

.pull-left[
 - 2010년 1월 - 2021년 9월 월별 익명의 질환 발생 건수에 관한 자료

```r
disease <- read_csv("./data/example.csv")
disease
```

```
## # A tibble: 1,128 × 4
##    Sex    Group   Date         N
##    <chr>  <chr>   <chr>    <dbl>
##  1 Female 10_14세 2010 Jan   114
##  2 Female 10_14세 2010 Feb   121
##  3 Female 10_14세 2010 Mar   106
##  4 Female 10_14세 2010 Apr   120
##  5 Female 10_14세 2010 May   112
##  6 Female 10_14세 2010 Jun   122
##  7 Female 10_14세 2010 Jul   116
##  8 Female 10_14세 2010 Aug   138
##  9 Female 10_14세 2010 Sep   122
## 10 Female 10_14세 2010 Oct   112
## # … with 1,118 more rows
```
…
## 결측치 처리

.scroll-output[

- 결측이 존재하지 않는 데이터이지만 임의로 결측 처리(원자료 값 121)

```r
disease2 <- disease |> 
    slice(-2)
disease2
```

```
## # A tibble: 1,127 × 4
##    Sex    Group   Date         N
##    <chr>  <chr>   <chr>    <dbl>
##  1 Female 10_14세 2010 Jan   114
##  2 Female 10_14세 2010 Mar   106
##  3 Female 10_14세 2010 Apr   120
##  4 Female 10_14세 2010 May   112
##  5 Female 10_14세 2010 Jun   122
##  6 Female 10_14세 2010 Jul   116
##  7 Female 10_14세 2010 Aug   138
##  8 Female 10_14세 2010 Sep   122
##  9 Female 10_14세 2010 Oct   112
## 10 Female 10_14세 2010 Nov   104
## # … with 1,117 more rows
```
…
.scroll-output[

- R에게 우리가 모델링할 시계열이 총 8개임을 알려줘야함

- `as_tsibble()`을 이용할 수 있음

```r
disease3 <- disease2 |> 
    mutate(Date = yearmonth(Date)) |> 
    as_tsibble(key = c(Sex, Group), index = Date)
disease3
```

```
## # A tsibble: 1,127 x 4 [1M]
## # Key:       Sex, Group [8]
##    Sex    Group       Date     N
##    <chr>  <chr>      <mth> <dbl>
##  1 Female 10_14세 2010 Jan   114
##  2 Female 10_14세 2010 Mar   106
##  3 Female 10_14세 2010 Apr   120
##  4 Female 10_14세 2010 May   112
##  5 Female 10_14세 2010 Jun   122
##  6 Female 10_14세 2010 Jul   116
##  7 Female 10_14세 2010 Aug   138
##  8 Female 10_14세 2010 Sep   122
##  9 Female 10_14세 2010 Oct   112
## 10 Female 10_14세 2010 Nov   104
## # … with 1,117 more rows
```
…
# .brand-red[시계열 자료 다루기]

.scroll-output[

- `fill_gaps()` 이용 결측치 대치

```r
disease4 <- disease3 |> 
    fill_gaps(N = 121L, .full = TRUE)
disease4
```

```
## # A tsibble: 1,128 x 4 [1M]
## # Key:       Sex, Group [8]
##    Sex    Group       Date     N
##    <chr>  <chr>      <mth> <dbl>
##  1 Female 10_14세 2010 Jan   114
##  2 Female 10_14세 2010 Feb   121
##  3 Female 10_14세 2010 Mar   106
##  4 Female 10_14세 2010 Apr   120
##  5 Female 10_14세 2010 May   112
##  6 Female 10_14세 2010 Jun   122
##  7 Female 10_14세 2010 Jul   116
##  8 Female 10_14세 2010 Aug   138
##  9 Female 10_14세 2010 Sep   122
## 10 Female 10_14세 2010 Oct   112
## # … with 1,118 more rows
```
…
